##### ㈤头砧 1 #####
select * from book
where Title like '%Mar%';

##### ㈤头砧 2 #####
select * from book
where Title like '%o%' limit 2;

##### ㈤头砧 3 #####
//insert into book (ISBN,Title,price) values
//	('9784598215766','The Name of the Star',499),
//	('9785598215768','The Girl Without A Name',900),
//	('9786598215769','The Book With No Name',1995),
//	('9787598215770','The Name of the Wind',899),
//	('9788598215771','My Name Is Memory',2850),
//	('9783598215772','Harry Potter',3500),
//	('9783598215773','A little lag work',650),
//	('9783598215774','Just call my Name',500),
//	('9783598215775','Nom Du Vent',359),
//	('9783598215776','The Emperors Knife',859);
-----------------------------------------
insert into sellbook (ISBN,price,volumn) values
	('9783598215766',289,2),
	('9783598215766',289,5),
	('9783598215919',199,1),
	('9783598215919',199,7),
	('9783598215933',250,5),
	('9783598215933',250,3),
	('9783598215957',352,10),
	('9783598215957',352,12),
	('9783598215995',157,2),
	('9783598215995',157,1);

##### ㈤头砧 4 #####
select sum(volumn) from sellbook;

##### ㈤头砧 5 #####
select distinct ISBN from sellbook;

##### ㈤头砧 6 #####
select sum(price) from sellbook;






